[
  {
    "id": "IRS",
    "type_s": "dataflow",
    "agency_s": "ECB",
    "version_s": "1.0",
    "name_s": "Interest rate statistics",
    "cat_ss": [ "0/C1/", "1/C1/C11/" ],
    "frequency_ss": [
      "Daily (D)",
      "Monthly (M)",
      "Yearly (Y)"
    ],
    "reference_area_ss": [
      "Austria (AT)"
    ],
    "interest_rate_type_ss": [
      "Bank interest rates (B)",
      "Long-term interest rate for convergence purposes (L)",
      "Money market interest rates (M)"
    ]
  },
  {
    "id": "ABC",
    "type_s": "dataflow",
    "agency_s": "Agency1",
    "version_s": "1.0",
    "name_s": "Name1",
    "cat_ss": [ "0/C1/", "1/C1/C11/", "2/C1/C11/C111/" ],
    "frequency_ss": [
      "Daily (D)",
      "Monthly (M)"
    ],
    "reference_area_ss": [
      "Austria (AT)",
      "Belgium (BE)"
    ]
  },
  {
    "id": "CDE",
    "type_s": "dataflow",
    "agency_s": "Agency2",
    "version_s": "1.0",
    "name_s": "Name2",
    "cat_ss": [ "0/C1/", "1/C1/C12/", "0/C2/" ],
    "reference_area_ss": [
      "Austria (AT)",
      "Belgium (BE)",
      "Bulgaria (BG)",
      "Cyprus (CY)",
      "Germany (DE)"
    ],
    "frequency_ss": [
      "Yearly (Y)"
    ],
    "interest_rate_type_ss": [
      "Bank interest rates (B)",
      "Money market interest rates (M)"
    ]
  }
]
